/home/mreymond/miniconda3/envs/py37/lib/python3.7/site-packages/spm1d/stats/hotellings.py:24: RuntimeWarning: Degrees of freedom <= 0 for slice
  WA,WB    = np.cov(yA.T), np.cov(yB.T)
/home/mreymond/miniconda3/envs/py37/lib/python3.7/site-packages/numpy/lib/function_base.py:2455: RuntimeWarning: divide by zero encountered in true_divide
  c *= np.true_divide(1, fact)
/home/mreymond/miniconda3/envs/py37/lib/python3.7/site-packages/numpy/lib/function_base.py:2455: RuntimeWarning: invalid value encountered in multiply
  c *= np.true_divide(1, fact)
/home/mreymond/miniconda3/envs/py37/lib/python3.7/site-packages/spm1d/stats/hotellings.py:24: RuntimeWarning: Degrees of freedom <= 0 for slice
  WA,WB    = np.cov(yA.T), np.cov(yB.T)
/home/mreymond/miniconda3/envs/py37/lib/python3.7/site-packages/numpy/lib/function_base.py:2455: RuntimeWarning: divide by zero encountered in true_divide
  c *= np.true_divide(1, fact)
/home/mreymond/miniconda3/envs/py37/lib/python3.7/site-packages/numpy/lib/function_base.py:2455: RuntimeWarning: invalid value encountered in multiply
  c *= np.true_divide(1, fact)
/home/mreymond/miniconda3/envs/py37/lib/python3.7/site-packages/spm1d/stats/hotellings.py:24: RuntimeWarning: Degrees of freedom <= 0 for slice
  WA,WB    = np.cov(yA.T), np.cov(yB.T)
/home/mreymond/miniconda3/envs/py37/lib/python3.7/site-packages/numpy/lib/function_base.py:2455: RuntimeWarning: divide by zero encountered in true_divide
  c *= np.true_divide(1, fact)
/home/mreymond/miniconda3/envs/py37/lib/python3.7/site-packages/numpy/lib/function_base.py:2455: RuntimeWarning: invalid value encountered in multiply
  c *= np.true_divide(1, fact)
/home/mreymond/miniconda3/envs/py37/lib/python3.7/site-packages/spm1d/stats/hotellings.py:24: RuntimeWarning: Degrees of freedom <= 0 for slice
  WA,WB    = np.cov(yA.T), np.cov(yB.T)
/home/mreymond/miniconda3/envs/py37/lib/python3.7/site-packages/numpy/lib/function_base.py:2455: RuntimeWarning: divide by zero encountered in true_divide
  c *= np.true_divide(1, fact)
/home/mreymond/miniconda3/envs/py37/lib/python3.7/site-packages/numpy/lib/function_base.py:2455: RuntimeWarning: invalid value encountered in multiply
  c *= np.true_divide(1, fact)
