 SEED:  145
1.0
Watch out - trying to add comparison between same datapoints!
Watch out - trying to add comparison between same datapoints!
True utility [0.5, 0.5]: 1.5625
=====cool-0
1.0
[1.0, 0.4375, 0.0, 0.4375, 1.0]
True utility [0.5, 0.5]: 1.5625
=====cool-0, v2
1.0
[1.0, 0.4375, 0.0, 0.4375, 1.0]
True utility [0.5, 0.5]: 1.5625
=====cool-1
1.0
[1.0, 0.4375, 0.0, 0.4375, 1.0]
True utility [0.5, 0.5]: 1.5625
=====cool-1, v2
1.0
[1.0, 0.4375, 0.0, 0.4375, 1.0]
=====cool-2
1.0
[1.0, 0.4375, 0.0, 0.4375, 1.0]
=====cool-2, v2
1.0
[1.0, 0.4375, 0.0, 0.4375, 1.0]
=====cool-3
1.0
[1.0, 0.4375, 0.0, 0.4375, 1.0]
=====cool-3, v2
1.0
[1.0, 0.4375, 0.0, 0.4375, 1.0]
1.0
[1.0, 0.4375, 0.0, 0.4375, 1.0]
iter. 0 done
1.0
Watch out - trying to add comparison between same datapoints!
True utility [0.5, 0.5]: 1.5625
=====cool-0
1.0
[1.0, 0.4375, 0.0, 0.4375, 1.0]
True utility [0.5, 0.5]: 1.5625
=====cool-0, v2
1.0
[1.0, 0.4375, 0.0, 0.4375, 1.0]
True utility [0.5, 0.5]: 1.5625
=====cool-1
1.0
[1.0, 0.4375, 0.0, 0.4375, 1.0]
True utility [0.5, 0.5]: 1.5625
=====cool-1, v2
1.0
[1.0, 0.4375, 0.0, 0.4375, 1.0]
=====cool-2
1.0
[1.0, 0.4375, 0.0, 0.4375, 1.0]
=====cool-2, v2
1.0
[1.0, 0.4375, 0.0, 0.4375, 1.0]
=====cool-3
1.0
[1.0, 0.4375, 0.0, 0.4375, 1.0]
=====cool-3, v2
1.0
[1.0, 0.4375, 0.0, 0.4375, 1.0]
1.0
[1.0, 0.4375, 0.0, 0.4375, 1.0]
iter. 1 done
1.0
Watch out - trying to add comparison between same datapoints!
True utility [0.5, 0.5]: 1.5625
=====cool-0
1.0
[1.0, 0.4375, 0.0, 0.4375, 1.0]
True utility [0.5, 0.5]: 1.5625
=====cool-0, v2
1.0
[1.0, 0.4375, 0.0, 0.4375, 1.0]
True utility [0.5, 0.5]: 1.5625
=====cool-1
1.0
[1.0, 0.4375, 0.0, 0.4375, 1.0]
True utility [0.5, 0.5]: 1.5625
=====cool-1, v2
1.0
[1.0, 0.4375, 0.0, 0.4375, 1.0]
=====cool-2
1.0
[1.0, 0.4375, 0.0, 0.4375, 1.0]
=====cool-2, v2
1.0
[1.0, 0.4375, 0.0, 0.4375, 1.0]
=====cool-3
1.0
[1.0, 0.4375, 0.0, 0.4375, 1.0]
=====cool-3, v2
1.0
[1.0, 0.4375, 0.0, 0.4375, 1.0]
1.0
[1.0, 0.4375, 0.0, 0.4375, 1.0]
iter. 2 done
1.0
True utility [0.5, 0.5]: 1.5625
=====cool-0
1.0
[1.0, 0.4375, 0.0, 0.4375, 1.0]
True utility [0.5, 0.5]: 1.5625
=====cool-0, v2
1.0
[1.0, 0.4375, 0.0, 0.4375, 1.0]
True utility [0.5, 0.5]: 1.5625
=====cool-1
1.0
[1.0, 0.4375, 0.0, 0.4375, 1.0]
True utility [0.5, 0.5]: 1.5625
=====cool-1, v2
1.0
[1.0, 0.4375, 0.0, 0.4375, 1.0]
=====cool-2
1.0
[1.0, 0.4375, 0.0, 0.4375, 1.0]
=====cool-2, v2
1.0
[1.0, 0.4375, 0.0, 0.4375, 1.0]
=====cool-3
1.0
[1.0, 0.4375, 0.0, 0.4375, 1.0]
=====cool-3, v2
1.0
[1.0, 0.4375, 0.0, 0.4375, 1.0]
1.0
[1.0, 0.4375, 0.0, 0.4375, 1.0]
iter. 3 done
1.0
Watch out - trying to add comparison between same datapoints!
