/home/mreymond/miniconda3/envs/py37/lib/python3.7/site-packages/spm1d/stats/hotellings.py:24: RuntimeWarning: Degrees of freedom <= 0 for slice
  WA,WB    = np.cov(yA.T), np.cov(yB.T)
/home/mreymond/miniconda3/envs/py37/lib/python3.7/site-packages/numpy/lib/function_base.py:2455: RuntimeWarning: divide by zero encountered in true_divide
  c *= np.true_divide(1, fact)
/home/mreymond/miniconda3/envs/py37/lib/python3.7/site-packages/numpy/lib/function_base.py:2455: RuntimeWarning: invalid value encountered in multiply
  c *= np.true_divide(1, fact)
Traceback (most recent call last):
  File "guts.py", line 1180, in <module>
    experimentExmple5(200, 5, seed_=args.seed)
  File "guts.py", line 307, in experimentExmple5
    regret_its, w_dists, cnts, qumap = interactive_thompson_sampling(mabby, linear_dm, num_iter, prespecified_regret_vector=regret_vec)
  File "/home/mreymond/dev/guts/thomcode/adt17Algos.py", line 334, in interactive_thompson_sampling
    decision_maker.noisy_compare(em, eu)
  File "/home/mreymond/dev/guts/thomcode/adt17Algos.py", line 77, in noisy_compare
    comp = self.defer_to_DM.noisy_compare(vector1, vector2, dont_update=True)
  File "../gp_preference/projThompson/decision_maker.py", line 55, in noisy_compare
    self.update_gp(self.dataset)
  File "../gp_preference/projThompson/decision_maker.py", line 71, in update_gp
    self.gp.update(dataset)
  File "../gp_preference/gaussian_process.py", line 103, in update
    self.utility_vals = self._compute_posterior()
  File "../gp_preference/gaussian_process.py", line 246, in _compute_posterior
    b = np.sum(h_j * np.exp(z_logpdf - z_logcdf), axis=1) / (np.sqrt(2) * self.std_noise)
  File "<__array_function__ internals>", line 6, in sum
  File "/home/mreymond/miniconda3/envs/py37/lib/python3.7/site-packages/numpy/core/fromnumeric.py", line 2182, in sum
    initial=initial, where=where)
  File "/home/mreymond/miniconda3/envs/py37/lib/python3.7/site-packages/numpy/core/fromnumeric.py", line 90, in _wrapreduction
    return ufunc.reduce(obj, axis, dtype, out, **passkwargs)
numpy.AxisError: axis 1 is out of bounds for array of dimension 1
srun: error: node012: task 0: Exited with exit code 1
